[
    {
        "CreationTime": "2020-09-06T18:12:47.000+00:00",
        "ClientIP": "10.94.45.191",
        "ExchangeDetails": {
            "From": "external@company.com",
            "InternetMessageId": "d062dc5b-fe68-4ed3-8259-92906926a4d5@fccc66ce0224.prod.outlook.com",
            "MessageTime": "2020-09-06T18:12:38.000+00:00",
            "NetworkMessageId": "34bb6585-ed8b-4140-9ea8-7607ad963417",
            "Recipients": [
                "Lily.Everett@acme.com"
            ],
            "Subject": "Hello"
        },
        "Id": "f7c82b00-3ee1-4083-a20d-5c10beb89aab",
        "ObjectId": "Lily.Everett@acme.com",
        "Operation": "SupervisoryReviewOLAudit",
        "OrganizationId": "a34b4ce4-29bb-4bc2-a89c-b0a666217e3d",
        "RecordType": 68,
        "ResultStatus": "Threat Model Positive Score:55",
        "UserId": "lily",
        "UserKey": "3299820645",
        "UserType": 0,
        "Version": 1,
        "Workload": "Exchange",
        "SecurityComplianceCenterEventType": 0
    },
    {
        "CreationTime": "2020-09-07T19:45:51.224+00:00",
        "ExchangeDetails": {
            "From": "tony@starkindustries.com",
            "InternetMessageId": "423a8aff-94a8-4859-a1a0-4405e15e6421@39a38cd629eb.prod.outlook.com",
            "MessageTime": "2020-09-07T19:45:38.224+00:00",
            "NetworkMessageId": "13bd574a-bb6e-429e-ab10-bf97c520da2b",
            "Recipients": [
                "svetla@acme.com"
            ],
            "Subject": "Invoice"
        },
        "Id": "cd9f7601-5abe-4a97-b4c0-e6a77c7ed0e9",
        "ObjectId": "svetla@acme.com",
        "Operation": "SupervisoryReviewOLAudit",
        "OrganizationId": "1e1f2b9a-b7e6-437d-9d38-9ea5b1e1c0de",
        "RecordType": 68,
        "ResultStatus": "Threat Model False Positive Score:83",
        "UserId": "svetla@acme.com",
        "UserKey": "6761047329",
        "UserType": 0,
        "Version": 1,
        "Workload": "Exchange",
        "SecurityComplianceCenterEventType": 0
    },
    {
        "CreationTime": "2020-09-07T19:46:02.224+00:00",
        "ClientIP": "1.2.3.4",
        "ExchangeDetails": {
            "From": "tony@starkindustries.com",
            "InternetMessageId": "028d384d-69d1-4e86-a980-e3d6ae92a8f7@3366b36248a6.prod.outlook.com",
            "MessageTime": "2020-09-07T19:45:51.224+00:00",
            "NetworkMessageId": "bd212dfe-fd6d-49e6-8bc1-2e0cad3fd824",
            "Recipients": [
                "svetla@acme.com"
            ],
            "Subject": "Invoice for Goods with IP"
        },
        "Id": "169ec5c7-c1fc-4f78-b316-a4658c9ee76a",
        "ObjectId": "svetla@acme.com",
        "Operation": "SupervisoryReviewOLAudit",
        "OrganizationId": "5bb2a030-0a57-4c02-a078-5c07fba0f41d",
        "RecordType": 68,
        "ResultStatus": "Threat Model Positive Score:77",
        "UserId": "svetla",
        "UserKey": "6275536988",
        "UserType": 0,
        "Version": 1,
        "Workload": "Exchange",
        "SecurityComplianceCenterEventType": 0
    }
]
